…
tb <- table(updn$trt_interaction)
# order by count
updn$trt <-  factor(updn$trt_interaction,
                    levels = names(tb[order(tb, decreasing = TRUE)]))

updn

## # A tibble: 3,452 x 10
##    minute day   flow_category side  bee_wind_orient~ flight_direction
##     <dbl> <chr>         <dbl> <chr> <chr>            <chr>           
##  1      1 06_0~          1.19 Right Downwind         Towards feeder  
##  2      1 06_0~         -1.19 Left  Upwind           Towards feeder  
##  3      1 06_0~         -1.19 Left  Upwind           Towards feeder  
##  4      1 06_0~         -1.19 Left  Downwind         Towards colony  
##  5      1 06_0~         -1.19 Left  Upwind           Towards feeder  
##  6      2 06_0~         -1.19 Left  Upwind           Towards feeder  
##  7      2 06_0~          1.19 Right Upwind           Towards colony  
##  8      2 06_0~          1.19 Right Upwind           Towards colony  
##  9      3 06_0~          1.19 Right Upwind           Towards colony  
## 10      3 06_0~          1.19 Right Upwind           Towards colony  
## # ... with 3,442 more rows, and 4 more variables: fast_slow <chr>,
## #   datetime <date>, trt_interaction <fct>, trt <fct>
…
ggsave(e1Plot, filename = file.path(figDir, "exp1_poisson_fast.png"), width = 5, height = 7, dpi = 400)

Experiment 2

variable windspeed

#________________________________________________________________________ 
# Experiment 2
# this incorporates, fast/slow, left/right/ and box/nectar
#________________________________________________________________________ 

exp2 <- updn[updn$experiment %in% levels(updn$experiment)[2:3], ] %>% as.tbl()
exp2

## # A tibble: 1,755 x 11
##    minute day   flow_category side  bee_wind_orient~ flight_direction
##     <dbl> <chr>         <dbl> <chr> <chr>            <chr>           
##  1      1 06_0~          0.25 Left  Upwind           Towards colony  
##  2      2 06_0~          0.25 Left  Upwind           Towards colony  
##  3      9 06_0~          0.25 Left  Downwind         Towards feeder  
##  4     10 06_0~         -1.07 Right Downwind         Towards colony  
##  5     11 06_0~          0.25 Left  Downwind         Towards feeder  
##  6     13 06_0~         -1.07 Right Downwind         Towards colony  
##  7     14 06_0~          0.25 Left  Downwind         Towards feeder  
##  8     15 06_0~          0.25 Left  Upwind           Towards colony  
##  9     17 06_0~         -1.07 Right Upwind           Towards feeder  
## 10     21 06_0~          0.25 Left  Upwind           Towards colony  
## # ... with 1,745 more rows, and 5 more variables: fast_slow <chr>,
## #   datetime <date>, trt_interaction <fct>, trt <fct>, experiment <fct>
…
# there is complete confounding -- we must drop two variables
# this data frame has NAs
exp2_1 <- exp2 %>%
  select(day, bee_wind_orientation, side, flight_direction,fast_slow ) %>%
  group_by(flight_direction, bee_wind_orientation, day, side, fast_slow) %>%
  summarize( n = n()) %>%
  spread(key = bee_wind_orientation, value = n) %>%
  arrange(day)

exp2_1

## # A tibble: 32 x 6
## # Groups:   flight_direction, day, side [32]
##    flight_direction day      side  fast_slow Downwind Upwind
##    <chr>            <chr>    <chr> <chr>        <int>  <int>
##  1 Towards colony   06_08_17 Left  Slow            NA     31
##  2 Towards colony   06_08_17 Right Fast            17     NA
##  3 Towards feeder   06_08_17 Left  Slow            10     NA
##  4 Towards feeder   06_08_17 Right Fast            NA     25
##  5 Towards colony   06_09_17 Left  Fast            NA     51
##  6 Towards colony   06_09_17 Right Slow            43     NA
##  7 Towards feeder   06_09_17 Left  Fast            38     NA
##  8 Towards feeder   06_09_17 Right Slow            NA     57
##  9 Towards colony   06_10_17 Left  Fast            62     NA
## 10 Towards colony   06_10_17 Right Slow            NA    121
## # ... with 22 more rows

# in this data frame, I've removed side, but there is still confounding
exp2_2 <- exp2 %>%
  select(day, bee_wind_orientation, flight_direction, fast_slow) %>%
  group_by(flight_direction, bee_wind_orientation, day, fast_slow) %>%
  summarize( n = n()) %>%
  spread(key = bee_wind_orientation, value = n) %>%
  arrange(day)
exp2_2

## # A tibble: 32 x 5
## # Groups:   flight_direction, day [16]
##    flight_direction day      fast_slow Downwind Upwind
##    <chr>            <chr>    <chr>        <int>  <int>
##  1 Towards colony   06_08_17 Fast            17     NA
##  2 Towards colony   06_08_17 Slow            NA     31
##  3 Towards feeder   06_08_17 Fast            NA     25
##  4 Towards feeder   06_08_17 Slow            10     NA
##  5 Towards colony   06_09_17 Fast            NA     51
##  6 Towards colony   06_09_17 Slow            43     NA
##  7 Towards feeder   06_09_17 Fast            38     NA
##  8 Towards feeder   06_09_17 Slow            NA     57
##  9 Towards colony   06_10_17 Fast            62     NA
## 10 Towards colony   06_10_17 Slow            NA    121
## # ... with 22 more rows
…
# Poisson version of exp2

pois2DF2 <- exp2 %>%
  select(bee_wind_orientation, fast_slow, flight_direction, day, side) %>%
  group_by(bee_wind_orientation, flight_direction, day, side, fast_slow) %>%
  summarize( Freq  = n()) %>%
  arrange(day, side) %>%
  group_by(day) %>%
    mutate(day_side_total = sum(Freq),
        daySidePercents = Freq /day_side_total)
pois2DF2

## # A tibble: 32 x 8
## # Groups:   day [8]
##    bee_wind_orient~ flight_direction day   side  fast_slow  Freq
##    <chr>            <chr>            <chr> <chr> <chr>     <int>
##  1 Downwind         Towards feeder   06_0~ Left  Slow         10
##  2 Upwind           Towards colony   06_0~ Left  Slow         31
##  3 Downwind         Towards colony   06_0~ Right Fast         17
##  4 Upwind           Towards feeder   06_0~ Right Fast         25
##  5 Downwind         Towards feeder   06_0~ Left  Fast         38
##  6 Upwind           Towards colony   06_0~ Left  Fast         51
##  7 Downwind         Towards colony   06_0~ Right Slow         43
##  8 Upwind           Towards feeder   06_0~ Right Slow         57
##  9 Downwind         Towards colony   06_1~ Left  Fast         62
## 10 Upwind           Towards feeder   06_1~ Left  Fast        100
## # ... with 22 more rows, and 2 more variables: day_side_total <int>,
## #   daySidePercents <dbl>
…
